^D:\MATTHEW PHAM\DOCUMENTS\BIGINT-REP\BIGINT\BITINT\CALCULATOR.CPP
/c /ZI /nologo /W3 /WX- /sdl /Od /Oy- /D _MBCS /Gm /EHsc /RTC1 /MDd /GS /fp:precise /Zc:wchar_t /Zc:forScope /Fo"DEBUG\\" /Fd"DEBUG\VC120.PDB" /Gd /TP /analyze- D:\MATTHEW PHAM\DOCUMENTS\BIGINT-REP\BIGINT\BITINT\CALCULATOR.CPP
^D:\MATTHEW PHAM\DOCUMENTS\BIGINT-REP\BIGINT\BITINT\FUNCTION.CPP
/c /ZI /nologo /W3 /WX- /sdl /Od /Oy- /D _MBCS /Gm /EHsc /RTC1 /MDd /GS /fp:precise /Zc:wchar_t /Zc:forScope /Fo"DEBUG\\" /Fd"DEBUG\VC120.PDB" /Gd /TP /analyze- D:\MATTHEW PHAM\DOCUMENTS\BIGINT-REP\BIGINT\BITINT\FUNCTION.CPP
^D:\MATTHEW PHAM\DOCUMENTS\BIGINT-REP\BIGINT\BITINT\SCANNER.CPP
/c /ZI /nologo /W3 /WX- /sdl /Od /Oy- /D _MBCS /Gm /EHsc /RTC1 /MDd /GS /fp:precise /Zc:wchar_t /Zc:forScope /Fo"DEBUG\\" /Fd"DEBUG\VC120.PDB" /Gd /TP /analyze- D:\MATTHEW PHAM\DOCUMENTS\BIGINT-REP\BIGINT\BITINT\SCANNER.CPP
^D:\MATTHEW PHAM\DOCUMENTS\BIGINT-REP\BIGINT\BITINT\CONVERTER.CPP
/c /ZI /nologo /W3 /WX- /sdl /Od /Oy- /D _MBCS /Gm /EHsc /RTC1 /MDd /GS /fp:precise /Zc:wchar_t /Zc:forScope /Fo"DEBUG\\" /Fd"DEBUG\VC120.PDB" /Gd /TP /analyze- D:\MATTHEW PHAM\DOCUMENTS\BIGINT-REP\BIGINT\BITINT\CONVERTER.CPP
^D:\MATTHEW PHAM\DOCUMENTS\BIGINT-REP\BIGINT\BITINT\MAIN.CPP
/c /ZI /nologo /W3 /WX- /sdl /Od /Oy- /D _MBCS /Gm /EHsc /RTC1 /MDd /GS /fp:precise /Zc:wchar_t /Zc:forScope /Fo"DEBUG\\" /Fd"DEBUG\VC120.PDB" /Gd /TP /analyze- D:\MATTHEW PHAM\DOCUMENTS\BIGINT-REP\BIGINT\BITINT\MAIN.CPP
^D:\MATTHEW PHAM\DOCUMENTS\BIGINT-REP\BIGINT\BITINT\OPERATOR.CPP
/c /ZI /nologo /W3 /WX- /sdl /Od /Oy- /D _MBCS /Gm /EHsc /RTC1 /MDd /GS /fp:precise /Zc:wchar_t /Zc:forScope /Fo"DEBUG\\" /Fd"DEBUG\VC120.PDB" /Gd /TP /analyze- D:\MATTHEW PHAM\DOCUMENTS\BIGINT-REP\BIGINT\BITINT\OPERATOR.CPP
